{
  "countries": [
    {
      "name": "country0",
      "artists": [
        {
          "name": "Artist 0",
          "somthing": "asdasd"
        },
        {
          "name": "Artist 1",
          "somthing": "asdasd"
        },
        {
          "name": "Artist 2",
          "somthing": "asdasd"
        }
      ]
    },
    {
      "name": "country1",
      "artists": [
        {
          "name": "Artist 0",
          "somthing": "asdasd"
        },
        {
          "name": "Artist 1",
          "somthing": "asdasd"
        },
        {
          "name": "Artist 2",
          "somthing": "asdasd"
        }
      ]
    },
    {
      "name": "country2",
      "artists": [
        {
          "name": "Artist 0",
          "somthing": "asdasd"
        },
        {
          "name": "Artist 1",
          "somthing": "asdasd"
        },
        {
          "name": "Artist 2",
          "somthing": "asdasd"
        }
      ]
    }
  ]
}